<svg
  xmlns="http://www.w3.org/2000/svg" viewBox="0 0 24 24">
  <defs>
    <style>.cls-1{fill-rule:evenodd}.black{fill:#000}</style>
  </defs>
  <path class="cls-1 color-2" d="M13.53 9.82a.66.66 0 0 0-.66.65v1.31H6.12a.65.65 0 1 0 0 1.3h6.75v1.39H6.13a.65.65 0 1 0 0 1.3h6.74v1.38H6.13a.65.65 0 0 0 0 1.3h7.4a.66.66 0 0 0 .65-.65v-7.33a.66.66 0 0 0-.65-.65z"/>
  <rect x="12.53" y="6.47" width="6" height="2" rx=".2" ry=".2"/>
  <path class="cls-1 black" d="M7.39 9.34a.23.23 0 0 0 .25.05.24.24 0 0 0 .14-.21v-.9a.16.16 0 0 1 .16-.15h2.36a.24.24 0 0 0 .23-.23v-.84a.26.26 0 0 0-.07-.17.23.23 0 0 0-.16-.06H7.94a.16.16 0 0 1-.16-.16v-.89a.22.22 0 0 0-.14-.21.21.21 0 0 0-.25 0l-1.7 1.74a.28.28 0 0 0-.07.17.24.24 0 0 0 .07.16z"/>
</svg>