<svg viewBox="0 0 24 24"
  xmlns="http://www.w3.org/2000/svg">
  <path class="color-2" d="M19 6.34H5a.4.4 0 0 0-.4.4v10.53a.39.39 0 0 0 .4.4h14a.39.39 0 0 0 .4-.4V6.75a.4.4 0 0 0-.4-.41zm-9.73 7H5.4v-2.7h3.87zM5.4 16.87v-2.72h3.87v2.72zm4.67-6.22h8.53v6.22h-8.53zm8.53-3.5v2.7h-3.87v-2.7zm-4.67 0v2.7h-3.86v-2.7zm-8.53 0h3.87v2.7H5.4z"/>
</svg>