{
    "/graphql": {
        "target": "https://sfo.sciflow.cloud",
        "secure": false,
        "changeOrigin": true,
        "logLevel": "debug"
    },
    "/export": {
        "target": "https://sfo.sciflow.cloud",
        "secure": false,
        "changeOrigin": true,
        "logLevel": "debug"
    }
}